{
  "type" : [ "h-card" ],
  "properties" : {
    "name" : [ "Chris Alemany🇺🇦🇨🇦🇪🇸" ],
    "photo" : [ {
      "value" : "https://mstdn.chrisalemany.ca/system/accounts/avatars/109/702/332/962/915/604/original/0493d74d401150ae.jpeg",
      "alt" : ""
    } ],
    "url" : [ "https://mstdn.chrisalemany.ca/@chris" ]
  },
  "lang" : "en-GB"
}
