{
  "type" : [ "h-entry" ],
  "properties" : {
    "name" : [ "A historic view of the practice to delay releasing Open Source software: OSI’s report" ],
    "summary" : [ "New report explores  from a historical perspective the “Delayed Open Source Publication” (DOSP), the practice to delay the release of code under Open Source licenses." ],
    "featured" : [ "https://blog.opensource.org/wp-content/uploads/2024/01/1.png" ],
    "author" : [ {
      "type" : [ "h-card" ],
      "properties" : {
        "name" : [ "Stefano Maffulli" ]
      }
    } ],
    "url" : [ "https://blog.opensource.org/a-historic-view-of-the-practice-to-delay-releasing-open-source-software-osis-report" ],
    "published" : [ "2024-01-09T14:47:43+00:00" ]
  }
}
