{
  "type" : [ "h-entry" ],
  "properties" : {
    "name" : [ "Dan Hon (@danhon@dan.mastohon.com)" ],
    "summary" : [ "Nadella is super concerned about all the generative AI he put everywhere; we should definitely think about guardrails, he says, while putting more generative AI everywhere" ],
    "url" : [ "https://dan.mastohon.com/@danhon/111841095719075667" ]
  }
}
