{
  "type" : [ "h-entry" ],
  "properties" : {
    "name" : [ "Large Heydon Collider (@heydon@front-end.social)" ],
    "summary" : [ "@ppatel@mstdn.social People don't talk enough about how fucking shit CAPTCHA is. It doesn't even catch spam effectively. In my last contract I argued and argued to replace it with a honey pot. We did so and went from 100 plus spam emails a day to zero, and got rid of the accessibility barrier with it." ],
    "url" : [ "https://front-end.social/@heydon/111840636494336049" ]
  }
}
