{
  "type" : [ "h-entry" ],
  "properties" : {
    "name" : [ "samir, sleepy potato (@samir@functional.computer)" ],
    "summary" : [ "No, I will not subscribe to your mailing list. Get an RSS/Atom feed." ],
    "url" : [ "https://mastodon.functional.computer/@samir/111697854762506711" ]
  }
}
