{
  "type" : [ "h-entry" ],
  "properties" : {
    "name" : [ "Charlie Stross (@cstross@wandering.shop)" ],
    "summary" : [ "Attached: 1 image\n\n\"Microsoft Edge runs on the same technology as Chrome, with the added trust of Microsoft.\"\n\nThey forgot to continue: \"… the warmth and humanity of the Emperor Dalek, Donald Trump's humility, Elon Musk's quiet egalitarianism, and ChatGPT's searing truthfulness and insight.\"" ],
    "featured" : [ "https://stockroom.wandering.shop/media_attachments/files/111/731/565/524/462/312/original/eb36c2931f409048.png" ],
    "url" : [ "https://wandering.shop/@cstross/111731565874257327" ]
  }
}
