{
  "type" : [ "h-entry" ],
  "properties" : {
    "name" : [ "I am not a supplier" ],
    "summary" : [ "For the past few years, we have seen a lot of discussions around the concept of the Software Supply Chain. These discussions started around the time of LeftPad and escalated with multiple incidents in the past few years. The problem of all the work in this domain is that it forgets a fundamental point." ],
    "featured" : [ "https://imgs.xkcd.com/comics/dependency.png" ],
    "author" : [ {
      "type" : [ "h-card" ],
      "properties" : {
        "name" : [ "Thomas Depierre" ]
      }
    } ],
    "url" : [ "https://softwaremaxims.com/blog/Not-A-Supplier" ],
    "published" : [ "2022-12-31T00:00:00+00:00" ]
  }
}
