{
  "type" : [ "h-entry" ],
  "properties" : {
    "name" : [ "SysAdmin1138 (@sysadmin1138@octodon.social)" ],
    "summary" : [ "Attached: 1 image\n\nHave a pretty #fractal. All pinks, plasma waves, and zoomy. 1280x960" ],
    "featured" : [ "https://assets.octodon.social/media_attachments/files/111/835/434/227/426/317/original/29024e6012a1f3fa.png" ],
    "url" : [ "https://octodon.social/@sysadmin1138/111835438619468333" ]
  }
}
