{
  "type" : [ "h-entry" ],
  "properties" : {
    "name" : [ "jacky (@jalcine@todon.eu)" ],
    "summary" : [ "It does blow my mind that I'm at the point of my life where I can see someone doing what I was doing a DECADE ago (tbh more) and me thinking \"oh you have no idea\"" ],
    "url" : [ "https://todon.eu/@jalcine/111885835357760584" ]
  }
}
