{
  "type" : [ "h-entry" ],
  "properties" : {
    "name" : [ "Radical Graffiti (@RadicalGraffiti@todon.eu)" ],
    "summary" : [ "Attached: 1 image\n\n\"The wrong Amazon is burning\"\nSticker spotted in Anchorage, Alaska" ],
    "featured" : [ "https://todon.eu/system/media_attachments/files/111/902/006/869/967/804/original/246b64237b6a69bf.jpg" ],
    "url" : [ "https://todon.eu/@RadicalGraffiti/111902007592460894" ]
  }
}
