{
  "type" : [ "h-entry" ],
  "properties" : {
    "name" : [ "Markdown escape backticks in inline code and fenced code blocks · Code with Hugo" ],
    "summary" : [ "<p>When writing technical documentation, blog posts or conducting code reviews, it can be useful to render backticks in Markdown inline code, code blocks or fen" ],
    "featured" : [ "https://codewithhugo.com/img/hugo_small.jpeg", "https://codewithhugo.com/img/hugo_small.jpeg", "https://codewithhugo.com/img/hugo_small.jpeg" ],
    "url" : [ "https://codewithhugo.com/markdown-escape-backticks/" ],
    "published" : [ "2024-01-08T00:00:00Z" ]
  }
}
