{
  "type" : [ "h-entry" ],
  "properties" : {
    "name" : [ "myrmepropagandist (@futurebird@sauropods.win)" ],
    "summary" : [ "Retired old people who aren't just ... busy being sick and dying give back to their communities in HUGE ways.  We had someone's grandpa come to our robotics competition to cheer the team on. The old people in my building do all the serious political organizing and man the polls. I'm too busy working being in my 40s and all that. \n\nRaising retirement ages takes away more than just \"retirement\" ... it makes everything harder. \n\nFar as I'm concerned it should be 59." ],
    "url" : [ "https://sauropods.win/@futurebird/111887036355405695" ]
  }
}
