{
  "type" : [ "h-entry" ],
  "properties" : {
    "name" : [ "fluffy 💜 (@fluffy@plush.city)" ],
    "summary" : [ "It's kind of funny to me how when I first discovered the furry fandom in the 90s it's because I believed myself to be an animal in a human body and most folks in the fandom were like \"nah that isn't a thing\" and since then I've come to accept that I'm human and fast forward 25 years and now there's a big and growing movement where it's like most furries seem to identify as nonhuman at a spiritual level and it's weird to be the outlier who *doesn't*" ],
    "url" : [ "https://plush.city/@fluffy/111680138235819361" ]
  }
}
