{
  "type" : [ "h-entry" ],
  "properties" : {
    "name" : [ "elle (@ElleGray@mstdn.social)" ],
    "summary" : [ "David Tennant implies the existence of Goliath Landlord" ],
    "url" : [ "https://mstdn.social/@ElleGray/111874505262297730" ]
  }
}
