{
  "type": [
    "h-event"
  ],
  "properties": {
    "name": [
      "State of Open Con"
    ],
    "location": [
      "The Brewery, 52 Chiswell Street, London, EC1Y 4SD"
    ],
    "url": [
      "https://stateofopencon.com/"
    ],
    "start": [
      "2024-02-06T09:00:00+0000"
    ],
    "end": [
      "2024-02-07T17:00:00+0000"
    ],
    "summary": [
      "OpenUK will be hosting a two day conference in Central London, which is The UK's Open Technology Conference Open Source Software, Open Hardware & Open Data"
    ],
    "featured": [
      "https://stateofopencon.com/app/uploads/2023/09/2024.png"
    ]
  }
}
