{
  "type" : [ "h-entry" ],
  "properties" : {
    "name" : [ "Arkadiusz Świętnicki 🇨🇳 (@Nuno@tweesecake.social)" ],
    "summary" : [ "I want to get into Vim. Any way of using this editor accessibly with #VoiceOver on #MacOS?" ],
    "url" : [ "https://tweesecake.social/@Nuno/111352376450899395" ]
  }
}
