{
  "type" : [ "h-entry" ],
  "properties" : {
    "name" : [ "Gerry McGovern (@gerrymcgovern@mastodon.green)" ],
    "summary" : [ "In the greatest crisis humanity has ever faced, caused by overuse of energy, our Tech Bro magicians continue to invent technologies that not alone are not energy conserving, they are massively, massively energy consumptive. From bitcoin to AI, tech becomes greedier and greedier for energy." ],
    "url" : [ "https://mastodon.green/@gerrymcgovern/111770685884062494" ]
  }
}
