{
  "type" : [ "h-entry" ],
  "properties" : {
    "name" : [ "Rob Whitaker (@RobW@iosdev.space)" ],
    "summary" : [ "I have a common dread that there will be a minor earthquake that will cause the glasses in the cupboard in the kitchen to rub together and make a horrible noise. And it has only just now occurred to me that this is absolutely batshit." ],
    "url" : [ "https://iosdev.space/@RobW/111841191978044885" ]
  }
}
