{
  "type" : [ "h-entry" ],
  "properties" : {
    "name" : [ "Make any website talk!" ],
    "summary" : [ "Listen to your favorite website aloud or add speech to your own website." ],
    "featured" : [ "https://talkify.net/Content/Images/talkify-logo-fb.png" ],
    "url" : [ "https://talkify.net/text-to-speech" ]
  }
}
