{
  "type" : [ "h-entry" ],
  "properties" : {
    "name" : [ "Erin 💽✨ (@erincandescent@erincandescent.net)" ],
    "summary" : [ "To the people who are like “What did you expect to happen when you picked a .af domain, are you idiots?”Yes, we were aware of the possibility of suspension from the startYes, we were aware that pol..." ],
    "featured" : [ "https://erincandescent.catgirldelivery.network/3cfd18e7f065a3bdecfd3a648e2f64e8f00bc3e49780a3e04f69d487e22936dc.png" ],
    "url" : [ "https://akko.erincandescent.net/notice/AeoVF2zhNHj6LrNXto" ]
  }
}
