{
  "type" : [ "h-entry" ],
  "properties" : {
    "name" : [ "First-Time Contributors, Open Source, AI, Security, And The Octoverse - Martin Woodward" ],
    "summary" : [ "The open-source ecosystem experienced a monumental shift in 2023, as detailed by Martin Woodward, VP of Developer Relations at GitHub, on the Mechanical Ink Podcast. The Octoverse report highlighted that more first-time contributors joined the open-source community than ever before. But why?" ],
    "featured" : [ "https://substackcdn.com/image/fetch/w_1200,h_600,c_fill,f_jpg,q_auto:good,fl_progressive:steep,g_auto/https%3A%2F%2Fsubstack-video.s3.amazonaws.com%2Fvideo_upload%2Fpost%2F141463989%2F4edb9341-c7b0-40ad-8e14-bc6557912196%2Ftranscoded-1707334496.png" ],
    "audio" : [ "https://api.substack.com/api/v1/audio/upload/4edb9341-c7b0-40ad-8e14-bc6557912196/src" ],
    "author" : [ {
      "type" : [ "h-card" ],
      "properties" : {
        "name" : [ "Schalk Neethling" ]
      }
    } ],
    "url" : [ "https://schalkneethling.substack.com/p/first-time-contributors-open-source" ]
  }
}
