{
  "type" : [ "h-entry" ],
  "properties" : {
    "name" : [ "Two talks: Your Reliance on Open Source Software and AI / ML & GDPR Essentials, Wed, Feb 21, 2024, 7:30 AM   | Meetup" ],
    "summary" : [ "Leap ahead in **February** with an early morning dose of **Notts Techfast**. In your latest instalment of **Nottingham's** *'before work'* shot of technology-focussed talks" ],
    "featured" : [ "https://secure.meetupstatic.com/photos/event/c/c/0/2/600_518992226.jpeg" ],
    "url" : [ "https://www.meetup.com/notts-techfast/events/299079531/" ]
  }
}
