{
  "type" : [ "h-entry" ],
  "properties" : {
    "name" : [ "Carlana Johnson :v_trans:​ (@carlana@tech.lgbt)" ],
    "summary" : [ "It’s the year of the Bell Riots. It’s about to get wild. https://bellriots.netlify.app" ],
    "url" : [ "https://tech.lgbt/@carlana/111679012228738921" ]
  }
}
