{
  "type" : [ "h-entry" ],
  "properties" : {
    "name" : [ "ChloChlo (@CordiallyChloe@tech.lgbt)" ],
    "summary" : [ "You know what's *actually* the craziest part about being gender non-conforming?\n\nWhen you realize you can just be whoever you want, whenever you want. \n\nIf I get tired of being a girl in 10 years or whenever, I can just stop being a girl. \n\nYeah, I'll have a vagina and stuff but like, I could just throw on some mens jeans, a men's tee, a baseball cap, and stop shaving. I wouldn't have a beard or anything anymore and maybe people would still gender me as female, but like, 🤷‍♀️\n\nGender is personal on an intimate level, but also meaningless on a societal level. \n\nI spent 30+ years looking like a guy. I've always been a girl but people thought I was a guy bc of how I dressed mostly. \n\nBut now I dress like a girl and take some hormones and people think I'm a girl. \n\nGender is dumb. \n\nBe trans. \nDo crime." ],
    "url" : [ "https://tech.lgbt/@CordiallyChloe/111717589460331058" ]
  }
}
