{
  "type" : [ "h-entry" ],
  "properties" : {
    "name" : [ "james BSc ADHD ASD (@james@strangeobject.space)" ],
    "summary" : [ "@test@gaycum.de amazing domain you have there" ],
    "url" : [ "https://strangeobject.space/@james/111697859895994442" ]
  }
}
