{
  "type" : [ "h-entry" ],
  "properties" : {
    "name" : [ "SE Radio 587: M. Scott Ford on Managing Dependency Freshness – Software Engineering Radio" ],
    "featured" : [ "https://se-radio.net/wp-content/uploads/2023/10/SE-radio-logo-color-600x100-1-e1704759241296.png", "https://se-radio.net/wp-content/uploads/2024/01/SE-radio-logo-color-600x100-1-e1704759241296.png", "https://se-radio.net/wp-content/uploads/2024/01/SE-radio-logo-color-600x100-1-e1704759241296.png", "https://se-radio.net/wp-content/uploads/2023/10/scott-ford-300.jpg", "https://www.se-radio.net/wp-content/uploads/2023/10/miro.png", "https://www.se-radio.net/wp-content/uploads/2023/03/newsletter.png", "https://csdl-public.ieeecomputer.org/covers/mso20230500c1.jpg", "https://se-radio.net/wp-content/uploads/2023/10/IEEE-CS_LogoTM-orange.png", "https://se-radio.net/wp-content/uploads/2023/10/ieee_mb_black.png", "https://se-radio.net/wp-content/uploads/2023/11/jaxon-repp-300-300x188.jpg", "https://se-radio.net/wp-content/uploads/2023/11/Yechezkel_Rabinovich-300-300x188.jpg", "https://se-radio.net/wp-content/uploads/2023/11/andy-suderman-334x188.png", "https://se-radio.net/wp-content/uploads/2023/10/ieee_mb_white.png", "https://se-radio.net/wp-content/uploads/2023/10/SE-radio-logo-white-e1697672974336.png", "https://se-radio.net/wp-content/uploads/2023/10/IEEE-CS_LogoTM-orange-bug-white-text.png", "https://se-radio.net/wp-content/uploads/2024/01/SE-radio-logo-color-600x100-1-e1704759241296.png" ],
    "url" : [ "https://se-radio.net/2023/10/se-radio-587-m-scott-ford-on-managing-dependency-freshness/" ]
  }
}
