{
  "type" : [ "h-entry" ],
  "properties" : {
    "name" : [ "SE Radio 602: Nicolas Carlo on Improving Legacy Code – Software Engineering Radio" ],
    "featured" : [ "https://se-radio.net/wp-content/uploads/2023/10/SE-radio-logo-color-600x100-1-e1704759241296.png", "https://se-radio.net/wp-content/uploads/2024/01/SE-radio-logo-color-600x100-1-e1704759241296.png", "https://se-radio.net/wp-content/uploads/2024/01/SE-radio-logo-color-600x100-1-e1704759241296.png", "https://se-radio.net/wp-content/uploads/2024/02/nicolas-carlo-300.png", "https://se-radio.net/wp-content/uploads/2024/02/WorkOS-logo-115.png", "https://www.se-radio.net/wp-content/uploads/2023/03/newsletter.png", "https://csdl-public.ieeecomputer.org/covers/mso20230500c1.jpg", "https://se-radio.net/wp-content/uploads/2023/10/IEEE-CS_LogoTM-orange.png", "https://se-radio.net/wp-content/uploads/2023/10/ieee_mb_black.png", "https://se-radio.net/wp-content/uploads/2024/01/han-yuan-300-300x188.jpg", "https://se-radio.net/wp-content/uploads/2024/01/william-morgan-300-300x188.jpg", "https://se-radio.net/wp-content/uploads/2024/01/jason-mcdonald-300-300x188.png", "https://se-radio.net/wp-content/uploads/2023/10/ieee_mb_white.png", "https://se-radio.net/wp-content/uploads/2023/10/SE-radio-logo-white-e1697672974336.png", "https://se-radio.net/wp-content/uploads/2023/10/IEEE-CS_LogoTM-orange-bug-white-text.png", "https://se-radio.net/wp-content/uploads/2024/01/SE-radio-logo-color-600x100-1-e1704759241296.png" ],
    "url" : [ "https://se-radio.net/2024/02/se-radio-602-nicolas-carlo-on-improving-legacy-code/" ]
  }
}
