{
  "type" : [ "h-entry" ],
  "properties" : {
    "name" : [ "K. Reid Wightman :verified: 🌻 (@reverseics@infosec.exchange)" ],
    "summary" : [ "Attached: 1 image" ],
    "featured" : [ "https://media.infosec.exchange/infosec.exchange/media_attachments/files/111/780/758/482/311/654/original/2d0212a638267c1a.jpeg" ],
    "url" : [ "https://infosec.exchange/@reverseics/111780780251639336" ]
  }
}
