{
  "type" : [ "h-entry" ],
  "properties" : {
    "name" : [ "Ryan Castellucci :nonbinary_flag: (@ryanc@infosec.exchange)" ],
    "summary" : [ "Someone: *complains about CORS errors*\nMe: Of CORS it's broken." ],
    "url" : [ "https://infosec.exchange/@ryanc/111852402500666653" ]
  }
}
