{
  "type" : [ "h-entry" ],
  "properties" : {
    "name" : [ "SwiftOnSecurity (@SwiftOnSecurity@infosec.exchange)" ],
    "summary" : [ "F in chat for queer.af" ],
    "url" : [ "https://infosec.exchange/@SwiftOnSecurity/111920185658067537" ]
  }
}
