{
  "type" : [ "h-entry" ],
  "properties" : {
    "name" : [ "nsfw :donor: (@timjclevenger@infosec.exchange)" ],
    "summary" : [ "Pro-tip: before setting your three security questions to 36 random alphanumerics, be aware that you might have to recite them to a customer service rep instead of just copy/pasting them into the website." ],
    "url" : [ "https://infosec.exchange/@timjclevenger/111740018590173112" ]
  }
}
