{
  "type" : [ "h-entry" ],
  "properties" : {
    "name" : [ "Unicorn recruiter response" ],
    "summary" : [ "I get approached a lot by recruiters. Like most modern algorithm, powered things, it suggests more of the same. This poses a challenge for me as I want to do things differently." ],
    "featured" : [ "https://1dom.fun/static/og-image.png" ],
    "url" : [ "https://1dom.fun/occupation/Unicorn-recruiter-response" ]
  }
}
