{
  "type" : [ "h-entry" ],
  "properties" : {
    "name" : [ "Screaming in the Cloud | Building a Strong Company Culture at Honeycomb with Mike Goldsmith" ],
    "summary" : [ "Mike Goldsmith, Staff Software Engineer at Honeycomb, joins Corey on Screaming in the Cloud to talk about Open Telemetry, company culture, and the pros and cons of Go vs. .NET. Corey and Mike discuss why OTel is such an important tool, while pointing out its double-edged sword of being fully..." ],
    "featured" : [ "https://images.transistor.fm/images/episode/1590737/medium_1699482464-artwork.jpg" ],
    "audio" : [ "https://dts.podtrac.com/redirect.mp3/media.transistor.fm/3cc27250/9a42e6cb.mp3" ],
    "url" : [ "https://share.transistor.fm/s/3cc27250" ]
  }
}
