{
  "type" : [ "h-entry" ],
  "properties" : {
    "name" : [ "Cup o' Go | A bunch 🍇 of grape things are happening" ],
    "summary" : [ "This show is supported by you! Consider joining as a Patreon member to support the show.Go 1.22RC2 releasedTake the new Go developer surveyLearning Go, 2nd edition now available for e-purchase, print coming soonListen to our interview with the author in Episode 44GopherCon talk by Russ Cox: Go..." ],
    "featured" : [ "https://images.transistor.fm/images/show/37862/medium_1674486898-artwork.jpg" ],
    "audio" : [ "https://media.transistor.fm/a25da389/24dc6db2.mp3" ],
    "url" : [ "https://share.transistor.fm/s/a25da389" ]
  }
}
