{
  "type" : [ "h-entry" ],
  "properties" : {
    "name" : [ "Screaming in the Cloud | Continuing to Market After the Product Has Sold with Kim Harrison" ],
    "summary" : [ "Kim Harrison, a freelance content marketing strategist and author, joins Corey on Screaming in the Cloud to talk about asking the right questions to find your target demographic, why she has such a deep love for story telling, and how marketing extends after the product has been sold. Kim shares..." ],
    "featured" : [ "https://images.transistor.fm/file/transistor/images/episode/1693988/medium_1705538415-artwork.jpg" ],
    "audio" : [ "https://dts.podtrac.com/redirect.mp3/media.transistor.fm/c50df9a0/7d51a1aa.mp3" ],
    "url" : [ "https://share.transistor.fm/s/c50df9a0" ]
  }
}
