{
  "type" : [ "h-entry" ],
  "properties" : {
    "name" : [ "Anders Eknert (@anderseknert@hachyderm.io)" ],
    "summary" : [ "Attached: 1 image\n\nScandinavian airlines sending me a ”2023 wrapped” and I can’t tell if it’s a joke or not." ],
    "featured" : [ "https://media.hachyderm.io/media_attachments/files/111/833/908/377/108/534/original/855a5827e75f91c9.jpeg" ],
    "url" : [ "https://hachyderm.io/@anderseknert/111833908605906882" ]
  }
}
