{
  "type" : [ "h-entry" ],
  "properties" : {
    "name" : [ "Chris \"Not So\" Short 🇺🇦 (@ChrisShort@hachyderm.io)" ],
    "summary" : [ "Why do you have a footer on a website that features never-ending pages that populate more and more information as you scroll?" ],
    "url" : [ "https://hachyderm.io/@ChrisShort/111892039036975240" ]
  }
}
