{
  "type" : [ "h-entry" ],
  "properties" : {
    "name" : [ "Molly White (@molly0xfff@hachyderm.io)" ],
    "summary" : [ "it's impossible for me to be a multimillionaire without robbing a bank, therefore i should be allowed to rob banks\n\n(headline: \"‘Impossible’ to create AI tools like ChatGPT without copyrighted material, OpenAI says\")\n\nhttps://www.theguardian.com/technology/2024/jan/08/ai-tools-chatgpt-copyrighted-material-openai" ],
    "url" : [ "https://hachyderm.io/@molly0xfff/111721704587608026" ]
  }
}
