{
  "type" : [ "h-entry" ],
  "properties" : {
    "name" : [ "sam henri gold (@samhenrigold@hachyderm.io)" ],
    "summary" : [ "Attached: 1 video\n\nI had to convert an episode of Drag Race for my iPad and, even though the file got borked, I still deeply enjoyed it." ],
    "featured" : [ "https://media.hachyderm.io/media_attachments/files/111/705/276/817/995/320/small/a5981101e2db0c18.png" ],
    "audio" : [ "https://media.hachyderm.io/media_attachments/files/111/705/276/817/995/320/original/a5981101e2db0c18.mp4" ],
    "url" : [ "https://hachyderm.io/@samhenrigold/111705277143505387" ]
  }
}
