{
  "type" : [ "h-entry" ],
  "properties" : {
    "name" : [ "Thomas 🔭✨ (@thomasfuchs@hachyderm.io)" ],
    "summary" : [ "It's truly an astounding failure of our society to let large companies just openly steal all information they can and then sell it on as if it's something they're making and the whole thing is totally normal and ethical.\n\nThe wonders of the tech industry never cease." ],
    "url" : [ "https://hachyderm.io/@thomasfuchs/111881630927315205" ]
  }
}
