{
  "type" : [ "h-entry" ],
  "properties" : {
    "name" : [ "Emelia 👸🏻 (@thisismissem@hachyderm.io)" ],
    "summary" : [ "Shared this privately, but it's worth repeating it publicly:\n\nAs a platform showing advertisements, you MUST have controls in place to allow people to opt out of certain categories of ads, e.g., those featuring violence, casinos/gambling, weight loss/AI body tuning, or alcohol/drug consumption.\n\nNot having that makes your platform unsafe and promotes an unhealthy society." ],
    "url" : [ "https://hachyderm.io/@thisismissem/111852006843180865" ]
  }
}
