{
  "type" : [ "h-entry" ],
  "properties" : {
    "name" : [ "cerium (lis) (@lis)" ],
    "summary" : [ "the autistic urge to use parentheses in every sentence (because you're afraid people will misunderstand it (or interpret additional meaning into it (which has happened before (many times (with terrible consequences (and i'm not even talking about the trauma this caused))))))" ],
    "featured" : [ "https://mk.catgirlsfor.science/files/thumbnail-b6f1a26d-3235-4978-b260-7276f92308a5" ],
    "url" : [ "https://mk.catgirlsfor.science/notes/9ejsf32qdk" ]
  }
}
