{
  "type" : [ "h-entry" ],
  "properties" : {
    "name" : [ "Speed Test" ],
    "summary" : [ "Test your internet connection with OpenSpeedTest" ],
    "author" : [ {
      "type" : [ "h-card" ],
      "properties" : {
        "name" : [ "Chris Short" ]
      }
    } ],
    "url" : [ "https://chrisshort.net/speed/" ],
    "published" : [ "2024-01-08T19:17:01+00:00" ]
  }
}
