{
  "type" : [ "h-entry" ],
  "properties" : {
    "name" : [ "Terra The Unhinged Autist (@Terra@chaosfem.tw)" ],
    "summary" : [ "Content warning: My current emotionally charged question" ],
    "url" : [ "https://chaosfem.tw/@Terra/111763974858870122" ]
  }
}
