{
  "type" : [ "h-entry" ],
  "properties" : {
    "name" : [ "Terra The Unhinged Autist (@Terra@chaosfem.tw)" ],
    "summary" : [ "I want boobs big enough that dudes feel awkward when they say \"Thanks guys.\"" ],
    "url" : [ "https://chaosfem.tw/@Terra/111744710094936664" ]
  }
}
