{
  "type" : [ "h-entry" ],
  "properties" : {
    "name" : [ "Terra The Unhinged Autist (@Terra@chaosfem.tw)" ],
    "summary" : [ "*Opens zoom\n\n*Angles camera so boobs are in shot\n\n*Turns on video" ],
    "url" : [ "https://chaosfem.tw/@Terra/111801127279804452" ]
  }
}
