{
  "type" : [ "h-entry" ],
  "properties" : {
    "name" : [ "kf (@kf@666.glitchwit.ch)" ],
    "summary" : [ "tfw you get to ask IT and security to revoke a bunch of your creds 😎\n\nsweet freedom!!" ],
    "url" : [ "https://666.glitchwit.ch/@kf/111852476632627463" ]
  }
}
