{
  "type" : [ "h-entry" ],
  "properties" : {
    "name" : [ "Luna (@luna@pony.social)" ],
    "summary" : [ "[…some time later…]\n\n“heya, I’m back!!”\n\n“oh hey how’d it g- babe I thought I told you to change your eyeliner, you know how badly the cheap stuff runs”\n\n“yeah, I know…”\n\n“wait, are those bruises?! …I’m gonna guess you didn’t get the job?”\n\n“I start Monday!”" ],
    "url" : [ "https://pony.social/@luna/111886328315742146" ]
  }
}
