{
  "type" : [ "h-entry" ],
  "properties" : {
    "name" : [ "Marco Bouterse (@gfxplumber@mastodon.gamedev.place)" ],
    "summary" : [ "Started the first work week of the year with a free for all bug fixing week where everyone on the team was free to fix whatever they wanted no matter priority. It is a great way to get rid of minor issues that have been bugging you for a long time, but never get scheduled to address. Highly recommended for every software project." ],
    "url" : [ "https://mastodon.gamedev.place/@gfxplumber/111747878821824457" ]
  }
}
