{
  "type" : [ "h-entry" ],
  "properties" : {
    "name" : [ "Random Geek (@randomgeek@hackers.town)" ],
    "summary" : [ "Attached: 2 images · Content warning: meat food" ],
    "url" : [ "https://hackers.town/@randomgeek/111678090504648855" ]
  }
}
