{
  "type" : [ "h-entry" ],
  "properties" : {
    "name" : [ "BJ233 (@BJ233@mastodon.social)" ],
    "summary" : [ "Attached: 1 image\n\n#meme #mickeymouse #anticapitalism" ],
    "featured" : [ "https://files.mastodon.social/media_attachments/files/111/697/319/850/801/062/original/ee110401109b0323.jpg" ],
    "url" : [ "https://mastodon.social/@BJ233/111697325674882668" ]
  }
}
