{
  "type" : [ "h-entry" ],
  "properties" : {
    "name" : [ "Terence Eden (@Edent@mastodon.social)" ],
    "summary" : [ "Attached: 1 image\n\nShoutout to the one person who is following my blog using RDF.\n\nEven I don't know where that is on my site!" ],
    "featured" : [ "https://files.mastodon.social/media_attachments/files/111/702/837/055/528/116/original/894a088622512c83.png" ],
    "url" : [ "https://mastodon.social/@Edent/111702840066074204" ]
  }
}
