{
  "type" : [ "h-entry" ],
  "properties" : {
    "name" : [ "Terence Eden (@Edent@mastodon.social)" ],
    "summary" : [ "Attached: 1 image\n\nStatistics from 14 years of #Blogging." ],
    "featured" : [ "https://files.mastodon.social/media_attachments/files/111/759/531/141/037/214/original/6bd52cd7c95e34af.png" ],
    "url" : [ "https://mastodon.social/@Edent/111759533599403999" ]
  }
}
