{
  "type" : [ "h-entry" ],
  "properties" : {
    "name" : [ "Terence Eden (@Edent@mastodon.social)" ],
    "summary" : [ "Attached: 1 image\n\n#TheTwoGenders" ],
    "featured" : [ "https://files.mastodon.social/media_attachments/files/111/874/882/648/424/968/original/0ad8e3e713ab9216.png" ],
    "url" : [ "https://mastodon.social/@Edent/111874884656997470" ]
  }
}
