{
  "type" : [ "h-entry" ],
  "properties" : {
    "name" : [ "Jon Ribbens (@jribbens@mastodon.social)" ],
    "summary" : [ "@Edent @tommorris Apparently it's a library which, given a forename and a \"country\", makes a guess as to the gender of people with that name. So the whole concept is just fundamentally broken from beginning to end, and the \"countries\" list including \"East Frisia\", \"Swiss\", and \"Kazakh Uzbek\" is just extra bonus lulz." ],
    "url" : [ "https://mastodon.social/@jribbens/109643155990492832" ]
  }
}
