{
  "type" : [ "h-entry" ],
  "properties" : {
    "name" : [ "mcc (@mcc@mastodon.social)" ],
    "summary" : [ "\"But it's obvious\" I'M READING THE \"GETTING STARTED\" DOCUMENTATION. OBVIOUSLY I HAVE NO BASIS FOR COMPREHENDING WHAT IS OR ISN'T OBVIOUS" ],
    "url" : [ "https://mastodon.social/@mcc/111882248303112285" ]
  }
}
