{
  "type" : [ "h-entry" ],
  "properties" : {
    "name" : [ "Marco \"Ocramius\" Pivetta (@ocramius@mastodon.social)" ],
    "summary" : [ "Annoyance of the day: take affiliate marketing links, extract JWT tokens from click-through tracking URIs, extract information from token to find landing page destination.\n\nI wish this wasn't a necessary skill -.-" ],
    "url" : [ "https://mastodon.social/@ocramius/111720939323459475" ]
  }
}
