{
  "type" : [ "h-entry" ],
  "properties" : {
    "name" : [ "Melonie (@qui_oui@mastodon.social)" ],
    "summary" : [ "Recently I've seen a few people comment on the air quality readings inside large art galleries; the results were far better than on trains, in planes and airports, in movie theatres and so on, due to the need for conservation of the artwork. It's just so strange thinking about how we apparently care more about protecting art than we do about protecting our own lives." ],
    "url" : [ "https://mastodon.social/@qui_oui/111771766094994264" ]
  }
}
