{
  "type" : [ "h-card" ],
  "properties" : {
    "name" : [ "Red" ],
    "photo" : [ {
      "value" : "https://files.mastodon.social/accounts/avatars/109/880/988/075/656/202/original/06fdb624dd00cd4a.jpeg",
      "alt" : ""
    } ],
    "url" : [ "https://mastodon.social/@RedtheBean" ]
  },
  "lang" : "en-GB"
}
