{
  "type" : [ "h-entry" ],
  "properties" : {
    "name" : [ "Structured Success (@structuredsucc@mastodon.social)" ],
    "summary" : [ "\"You forgot? Must not be important.\"\n\nListen bro, I can and have forgotten to eat, pee, sleep, cash cheques. I've lost my car by taking the bus home after driving there.\n\nImportance is not a distinguishing factor here. The fact a commodore 64 has more RAM than I do is the issue" ],
    "url" : [ "https://mastodon.social/@structuredsucc/111705086895847441" ]
  }
}
