{
  "type" : [ "h-entry" ],
  "properties" : {
    "name" : [ "Microsoft built Kiota to keep an API with 20,000 endpoints humming" ],
    "summary" : [ "Join us for a chat with Darrel Miller and Vincent Biret from Microsoft's Graph API team. On this episode of the podcast, we discuss Kiota, Microsoft's API-wrangling toolset which was born from a need to manage 20,000 endpoints on their Graph API's v1 endpoint." ],
    "featured" : [ "https://apisyouwonthate.com/content/images/2024/01/35-kiota-microsoft.jpg" ],
    "url" : [ "https://apisyouwonthate.com/podcast/microsoft-kiota-graph-api-darrel-miller-vincent-biret/" ],
    "published" : [ "2024-01-15T12:44:24.000Z" ]
  }
}
