{
  "type" : [ "h-entry" ],
  "properties" : {
    "name" : [ "Andy Piper (@andypiper@macaw.social)" ],
    "summary" : [ "The plenary speakers for #StateOfOpenCon are up on the website - and, the whole schedule is packed with fantastic expertise. Exciting to be a liaison for all of these speakers! Some community tickets are available. https://stateofopencon.com" ],
    "url" : [ "https://macaw.social/@andypiper/111844419109299713" ]
  }
}
