{
  "type" : [ "h-entry" ],
  "properties" : {
    "name" : [ "Jamey Sharp (@jamey@toot.cat)" ],
    "summary" : [ "I just learned the phrase \"circus factor\" (\"If you or someone on your team ran away to join the circus, how stressful would it be for the rest of the team?\") and I like it much better than the widely-used phrase \"bus factor\". https://mercedesbernard.com/speaking/minimize-circus-factor/" ],
    "url" : [ "https://toot.cat/@jamey/111694211615881692" ]
  }
}
