{
  "type" : [ "h-entry" ],
  "properties" : {
    "name" : [ "ThatSexToyGuy (@hungry_joe@mas.to)" ],
    "summary" : [ "friend: how'd the date go\nme: she ghosted me\nfriend: she didn't show up?\nme: no she turned up in a bedsheet with eyeholes cut out and now she won't stop haunting me\ndate, from another room: ooooOOOOOoooooo" ],
    "url" : [ "https://mas.to/@hungry_joe/111941262400312620" ]
  }
}
