{
  "type" : [ "h-entry" ],
  "properties" : {
    "name" : [ "ThatSexToyGuy (@hungry_joe@mas.to)" ],
    "summary" : [ "sing like no one's listening, dance like no one's watching, masturbate like no one's called security" ],
    "url" : [ "https://mas.to/@hungry_joe/111833724864394351" ]
  }
}
