{
  "type" : [ "h-entry" ],
  "properties" : {
    "name" : [ "Jon Gottfried and Mike Swift on the MLH Fellowship program" ],
    "summary" : [ "Jon and Mike share about the MLH Fellowship program, the philosophy behind MLH, and the changes they faced when COVID hit." ],
    "featured" : [ "https://assets.fireside.fm/file/fireside-images/podcasts/images/2/27729c65-f4a6-4496-8c86-820e7f13b285/episodes/1/137c82b5-ad1d-488e-bcd2-e325ce82c93d/cover_medium.jpg?v=2" ],
    "audio" : [ "https://aphid.fireside.fm/d/1437767933/27729c65-f4a6-4496-8c86-820e7f13b285/137c82b5-ad1d-488e-bcd2-e325ce82c93d.mp3" ],
    "author" : [ {
      "type" : [ "h-card" ],
      "properties" : {
        "name" : [ "SustainOSS" ]
      }
    } ],
    "url" : [ "https://podcast.sustainoss.org/113" ]
  }
}
