{
  "type" : [ "h-entry" ],
  "properties" : {
    "name" : [ "Design Thinking! Comic (@designthinkingcomic@mastodon.cloud)" ],
    "summary" : [ "Attached: 1 image\n\nI feel powerless in the face of the rampant adoption of A.I. with little to no societal safeguarding or legal protection, so I make jokes while the driverless steamroller slowly crushes us all to death." ],
    "featured" : [ "https://media.mastodon.cloud/media_attachments/files/111/940/456/004/520/829/original/c004586f8c490ca7.png" ],
    "url" : [ "https://mastodon.cloud/@designthinkingcomic/111940456251418659" ]
  }
}
