{
  "type" : [ "h-entry" ],
  "properties" : {
    "name" : [ "Sophie (@sophie@social.lol)" ],
    "summary" : [ "How I'm using @rem@front-end.social's excellent cli tool to automate sending webmentions when I build my site. https://localghost.dev/blog/sending-webmentions-from-a-static-site/" ],
    "url" : [ "https://social.lol/@sophie/111789682580628386" ]
  }
}
