{
  "type" : [ "h-entry" ],
  "properties" : {
    "name" : [ "ernmander (@ernmander@mastomo.online)" ],
    "summary" : [ "Attached: 1 image\n\nThis is where I belong #SOOCon24 #OpenUK I am trying to get the #ubuntu LoCo back up and running. But I’d love to know how I can be more involved in #OpenSource UK adoption. I’ve found my home after years in the wilderness of yelling." ],
    "featured" : [ "https://cdn.masto.host/mastomoonline/media_attachments/files/111/886/621/079/219/995/original/8d533c707a80d3aa.jpeg" ],
    "url" : [ "https://mastomo.online/@ernmander/111886621430177193" ]
  }
}
