{
  "type" : [ "h-entry" ],
  "properties" : {
    "name" : [ "Lessons learned from bringing promotional sweets to a conference" ],
    "category" : [ "conferences", "schwag", "ukgcxl", "ukgovcamp" ],
    "url" : [ "https://shkspr.mobi/blog/2024/01/lessons-learned-from-bringing-promotional-sweets-to-a-conference/" ],
    "published" : [ "2024-01-21" ],
    "updated" : [ "2024-01-21" ],
    "author" : [ {
      "type" : [ "h-card" ],
      "properties" : {
        "name" : [ "@edent" ],
        "photo" : [ {
          "value" : "https://shkspr.mobi/apple-touch-icon.png",
          "alt" : ""
        } ]
      },
      "lang" : "en-GB",
      "value" : "@edent"
    } ]
  },
  "lang" : "en-GB"
}
