{
  "type" : [ "h-entry" ],
  "properties" : {
    "name" : [ "Drew Schuster (@nuncamind@xoxo.zone)" ],
    "summary" : [ "Attached: 1 image\n\n(Plus the link has expired)" ],
    "featured" : [ "https://xoxo-media.sfo2.cdn.digitaloceanspaces.com/media_attachments/files/111/893/065/782/590/324/original/ca3a5c1e510488a9.jpeg" ],
    "url" : [ "https://xoxo.zone/@nuncamind/111893066253898131" ]
  }
}
