{
  "type" : [ "h-entry" ],
  "properties" : {
    "name" : [ "Future of [energy, content, food] featuring the hallway track at THAT Conference (Changelog &amp; Friends #30)" ],
    "summary" : [ "We’re taking you back to the hallway track at THAT Conference where we have 3 MORE fun conversations: one with Samuel Goff about the future of energy, one with YouTuber Jess Chan about the future of content creation &amp;amp; one with Vanessa Villa / Noah Jenkins about ag tech &amp;amp; the future of food. " ],
    "featured" : [ "https://cdn.changelog.com/static/images/share/twitter-friends-7fa3c9c5a72765c322b47e92da397fbb.png" ],
    "audio" : [ "https://op3.dev/e/https://cdn.changelog.com/uploads/friends/30/changelog--friends-30.mp3" ],
    "url" : [ "https://changelog.com/friends/30" ]
  }
}
