{
  "type" : [ "h-entry" ],
  "properties" : {
    "name" : [ "Gophers Say! GopherCon EU Athens 2024 with Wiktor + Diana + Greg vs Val + Andrii + Llwellyn (Go Time #303)" ],
    "summary" : [ "Our award winning worthy survey game show is back, this time Mat Ryer hosts it live on stage at GopherCon EU Athens 2024! Join in &amp;amp; play along as we see which team can better guess what these GopherCon gophers had to say! " ],
    "featured" : [ "https://cdn.changelog.com/static/images/share/twitter-gotime-a47cdd7bb3e3357398eda827d9cc3615.png" ],
    "audio" : [ "https://op3.dev/e/https://cdn.changelog.com/uploads/gotime/303/go-time-303.mp3" ],
    "url" : [ "https://changelog.com/gotime/303" ]
  }
}
