{
  "type" : [ "h-entry" ],
  "properties" : {
    "name" : [ "Taking on Goliath with Nadia Odunayo, Founder and CEO (Changelog Interviews #577)" ],
    "summary" : [ "This week on The Changelog we’re talking with Nadia Odunayo, founder of StoryGraph. Nadia started out as a one woman dev and product team — she’s had to adjust and maneuver along way to becoming the Amazon-free alternative to Goodreads. We talk about the importance of customer research, the iterative nature of customer..." ],
    "featured" : [ "https://cdn.changelog.com/static/images/share/twitter-podcast-0fed02e920a2ff887b9c8ccac88925e1.png" ],
    "audio" : [ "https://op3.dev/e/https://cdn.changelog.com/uploads/podcast/577/the-changelog-577.mp3" ],
    "url" : [ "https://changelog.com/podcast/577" ]
  }
}
