{
  "type" : [ "h-entry" ],
  "properties" : {
    "name" : [ "Enron Hubbard (@enron@tilde.zone)" ],
    "summary" : [ "Folks remembering #AaronSwartz today - remember that he was moving publicly-funded research out from behind a paywall.\n\nThen remember the only reason the case went forward is because federal prosecutors, specifically Carmen Ortiz and Stephen Heymann, wanted to make an example of him.\n\n“Theft is theft, and it doesn’t matter if you use a crowbar or a computer” were Heymann’s words at the time.\n\nNotice how federal prosecutors aren’t bullying Sam Altman for the wholesale theft of content network-wide, to build a machine that spews bullshit and further destroys our ability to determine the truth?\n\nIt’s because he’s doing it for private profit, while Aaron worked for the public good.\n\nNever let yourself be tricked into believing the legal system is a justice system." ],
    "url" : [ "https://tilde.zone/@enron/111738499318134283" ]
  }
}
