{
  "type" : [ "h-entry" ],
  "properties" : {
    "name" : [ "I quit my job to work full time on my open source project" ],
    "summary" : [ "Quitting my job to start a company." ],
    "featured" : [ "https://img.ellie.wtf/i/a820191a338753e81cca394a72f23622f7465fb312f909e3224f8ba5d818348b.jpg" ],
    "url" : [ "https://ellie.wtf/posts/i-quit-my-job-to-work-full-time-on-my-open-source-project" ]
  }
}
