{
  "type" : [ "h-entry" ],
  "properties" : {
    "name" : [ "Cats of Yore (@CatsOfYore@varmint.town)" ],
    "summary" : [ "Attached: 1 image\n\nA Small Girl with a Cat. 1889. https://www.meisterdrucke.ie/fine-art-prints/Théophile-Alexandre-Steinlen/78395/A-Small-Girl-with-a-Cat,-1889.html" ],
    "featured" : [ "https://sb-fzn88i6ay2.b-cdn.net/media_attachments/files/111/933/832/962/096/336/original/73af630ae358f40e.png" ],
    "url" : [ "https://varmint.town/@CatsOfYore/111933851048235880" ]
  }
}
