{
  "type" : [ "h-entry" ],
  "properties" : {
    "name" : [ "thiccie from billericay (@pisscotheque@godforsaken.website)" ],
    "summary" : [ "i'm being asked to \"develop a career plan\", why can't people just be as surprised as i am that i'm still alive and leave it at that" ],
    "url" : [ "https://godforsaken.website/@pisscotheque/111846195189046098" ]
  }
}
